## Autogenerated by Scribe. DO NOT MODIFY.

name: Produtos
description: ''
endpoints:
  -
    httpMethods:
      - GET
    uri: api/v1/produtos
    metadata:
      groupName: Produtos
      groupDescription: ''
      subgroup: ''
      subgroupDescription: ''
      title: 'Lista produtos com suporte a filtros, ordenação e paginação.'
      description: ''
      authenticated: true
      deprecated: false
      custom: []
    headers:
      Authorization: 'Bearer {ACCESS_TOKEN}'
      Content-Type: application/json
      Accept: application/json
    urlParameters: []
    cleanUrlParameters: []
    queryParameters:
      search:
        name: search
        description: 'Busca textual por nome, descrição ou categoria.'
        required: false
        example: smartphone
        type: string
        enumValues: []
        exampleWasSpecified: false
        nullable: true
        custom: []
      categoria:
        name: categoria
        description: 'Filtra por uma categoria específica. Must not be greater than 255 characters.'
        required: false
        example: Eletrônicos
        type: string
        enumValues: []
        exampleWasSpecified: false
        nullable: true
        custom: []
      categorias:
        name: categorias
        description: 'Must not be greater than 255 characters.'
        required: false
        example:
          - b
        type: 'string[]'
        enumValues: []
        exampleWasSpecified: false
        nullable: false
        custom: []
      min_preco:
        name: min_preco
        description: 'Limite mínimo de preço dos produtos retornados. Must be at least 0.'
        required: false
        example: 100.9
        type: number
        enumValues: []
        exampleWasSpecified: false
        nullable: true
        custom: []
      max_preco:
        name: max_preco
        description: 'Limite máximo de preço dos produtos retornados. Must be at least 0.'
        required: false
        example: 999.9
        type: number
        enumValues: []
        exampleWasSpecified: false
        nullable: true
        custom: []
      disponivel:
        name: disponivel
        description: 'Define se apenas produtos com estoque (>0) ou esgotados (<=0) devem ser retornados.'
        required: false
        example: false
        type: boolean
        enumValues: []
        exampleWasSpecified: false
        nullable: true
        custom: []
      sort:
        name: sort
        description: 'Campo utilizado na ordenação (nome, preco, categoria, estoque, created_at).'
        required: false
        example: preco
        type: string
        enumValues:
          - nome
          - preco
          - categoria
          - estoque
          - created_at
        exampleWasSpecified: false
        nullable: true
        custom: []
      order:
        name: order
        description: 'Direção da ordenação (asc ou desc).'
        required: false
        example: desc
        type: string
        enumValues:
          - asc
          - desc
        exampleWasSpecified: false
        nullable: true
        custom: []
      page:
        name: page
        description: 'Número da página a ser retornada. Must be at least 1.'
        required: false
        example: 2
        type: integer
        enumValues: []
        exampleWasSpecified: false
        nullable: true
        custom: []
      per_page:
        name: per_page
        description: 'Quantidade de registros por página (1-100). Must be at least 1. Must not be greater than 100.'
        required: false
        example: 25
        type: integer
        enumValues: []
        exampleWasSpecified: false
        nullable: true
        custom: []
    cleanQueryParameters:
      search: smartphone
      categoria: Eletrônicos
      categorias:
        - b
      min_preco: 100.9
      max_preco: 999.9
      disponivel: false
      sort: preco
      order: desc
      page: 2
      per_page: 25
    bodyParameters: []
    cleanBodyParameters: []
    fileParameters: []
    responses:
      -
        status: 200
        content: |-
          {
            "data": [
              {
                "id": 15,
                "nome": "Smartphone X",
                "descricao": "Tela AMOLED de 6.1" e câmera dupla de 48MP.",
                "preco": 3499.9,
                "categoria": "Eletrônicos",
                "estoque": 12,
                "created_at": "2024-05-10T12:30:45Z",
                "updated_at": "2024-07-02T16:18:03Z"
              }
            ],
            "links": {
              "first": "http://localhost/api/v1/produtos?page=1",
              "last": "http://localhost/api/v1/produtos?page=5",
              "prev": null,
              "next": "http://localhost/api/v1/produtos?page=2"
            },
            "meta": {
              "current_page": 1,
              "from": 1,
              "last_page": 5,
              "path": "http://localhost/api/v1/produtos",
              "per_page": 15,
              "to": 15,
              "total": 75
            }
          }
        headers: []
        description: ''
        custom: []
    responseFields:
      'data[].id':
        name: 'data[].id'
        description: 'Identificador do produto.'
        required: false
        example: null
        type: integer
        enumValues: []
        exampleWasSpecified: false
        nullable: false
        custom: []
      'data[].nome':
        name: 'data[].nome'
        description: 'Nome do produto.'
        required: false
        example: null
        type: string
        enumValues: []
        exampleWasSpecified: false
        nullable: false
        custom: []
      'data[].descricao':
        name: 'data[].descricao'
        description: 'Descrição detalhada.'
        required: false
        example: null
        type: string
        enumValues: []
        exampleWasSpecified: false
        nullable: false
        custom: []
      'data[].preco':
        name: 'data[].preco'
        description: 'Preço unitário do produto.'
        required: false
        example: null
        type: number
        enumValues: []
        exampleWasSpecified: false
        nullable: false
        custom: []
      'data[].categoria':
        name: 'data[].categoria'
        description: 'Categoria cadastrada.'
        required: false
        example: null
        type: string
        enumValues: []
        exampleWasSpecified: false
        nullable: false
        custom: []
      'data[].estoque':
        name: 'data[].estoque'
        description: 'Quantidade disponível em estoque.'
        required: false
        example: null
        type: integer
        enumValues: []
        exampleWasSpecified: false
        nullable: false
        custom: []
      'data[].created_at':
        name: 'data[].created_at'
        description: 'Data de criação em formato ISO 8601.'
        required: false
        example: null
        type: string
        enumValues: []
        exampleWasSpecified: false
        nullable: false
        custom: []
      'data[].updated_at':
        name: 'data[].updated_at'
        description: 'Última atualização em formato ISO 8601.'
        required: false
        example: null
        type: string
        enumValues: []
        exampleWasSpecified: false
        nullable: false
        custom: []
    auth:
      - headers
      - Authorization
      - 'Bearer 6g43cv8PD1aE5beadkZfhV6'
    controller: null
    method: null
    route: null
    custom: []
  -
    httpMethods:
      - POST
    uri: api/v1/produtos
    metadata:
      groupName: Produtos
      groupDescription: ''
      subgroup: ''
      subgroupDescription: ''
      title: 'Cadastra um novo produto.'
      description: ''
      authenticated: true
      deprecated: false
      custom: []
    headers:
      Authorization: 'Bearer {ACCESS_TOKEN}'
      Content-Type: application/json
      Accept: application/json
    urlParameters: []
    cleanUrlParameters: []
    queryParameters: []
    cleanQueryParameters: []
    bodyParameters:
      nome:
        name: nome
        description: 'Nome do produto. Must not be greater than 255 characters.'
        required: true
        example: 'Caixa de Som Bluetooth'
        type: string
        enumValues: []
        exampleWasSpecified: false
        nullable: false
        custom: []
      descricao:
        name: descricao
        description: 'Descrição detalhada do produto.'
        required: true
        example: 'Caixa portátil com bateria de 12h e proteção IP67.'
        type: string
        enumValues: []
        exampleWasSpecified: false
        nullable: false
        custom: []
      preco:
        name: preco
        description: 'Preço unitário do produto. Must be at least 0.'
        required: true
        example: 299.9
        type: number
        enumValues: []
        exampleWasSpecified: false
        nullable: false
        custom: []
      categoria:
        name: categoria
        description: 'Categoria em que o produto se enquadra. Must not be greater than 255 characters.'
        required: true
        example: Áudio
        type: string
        enumValues: []
        exampleWasSpecified: false
        nullable: false
        custom: []
      estoque:
        name: estoque
        description: 'Quantidade disponível em estoque. Must be at least 0.'
        required: true
        example: 20
        type: integer
        enumValues: []
        exampleWasSpecified: false
        nullable: false
        custom: []
    cleanBodyParameters:
      nome: 'Caixa de Som Bluetooth'
      descricao: 'Caixa portátil com bateria de 12h e proteção IP67.'
      preco: 299.9
      categoria: Áudio
      estoque: 20
    fileParameters: []
    responses:
      -
        status: 201
        content: |-
          {
            "id": 21,
            "nome": "Caixa de Som Bluetooth",
            "descricao": "Caixa portátil com bateria de 12h e proteção IP67",
            "preco": 299.9,
            "categoria": "Áudio",
            "estoque": 20,
            "created_at": "2024-07-10T10:12:05Z",
            "updated_at": "2024-07-10T10:12:05Z"
          }
        headers: []
        description: ''
        custom: []
    responseFields: []
    auth:
      - headers
      - Authorization
      - 'Bearer 6g43cv8PD1aE5beadkZfhV6'
    controller: null
    method: null
    route: null
    custom: []
  -
    httpMethods:
      - GET
    uri: 'api/v1/produtos/{id}'
    metadata:
      groupName: Produtos
      groupDescription: ''
      subgroup: ''
      subgroupDescription: ''
      title: 'Exibe os detalhes de um produto específico.'
      description: ''
      authenticated: true
      deprecated: false
      custom: []
    headers:
      Authorization: 'Bearer {ACCESS_TOKEN}'
      Content-Type: application/json
      Accept: application/json
    urlParameters:
      id:
        name: id
        description: 'The ID of the produto.'
        required: true
        example: 16
        type: integer
        enumValues: []
        exampleWasSpecified: false
        nullable: false
        custom: []
      produto:
        name: produto
        description: 'Identificador do produto.'
        required: true
        example: 21
        type: integer
        enumValues: []
        exampleWasSpecified: true
        nullable: false
        custom: []
    cleanUrlParameters:
      id: 16
      produto: 21
    queryParameters: []
    cleanQueryParameters: []
    bodyParameters: []
    cleanBodyParameters: []
    fileParameters: []
    responses:
      -
        status: 200
        content: |-
          {
            "id": 21,
            "nome": "Caixa de Som Bluetooth",
            "descricao": "Caixa portátil com bateria de 12h e proteção IP67",
            "preco": 299.9,
            "categoria": "Áudio",
            "estoque": 20,
            "created_at": "2024-07-10T10:12:05Z",
            "updated_at": "2024-07-10T10:12:05Z"
          }
        headers: []
        description: ''
        custom: []
    responseFields: []
    auth:
      - headers
      - Authorization
      - 'Bearer 6g43cv8PD1aE5beadkZfhV6'
    controller: null
    method: null
    route: null
    custom: []
  -
    httpMethods:
      - PUT
      - PATCH
    uri: 'api/v1/produtos/{id}'
    metadata:
      groupName: Produtos
      groupDescription: ''
      subgroup: ''
      subgroupDescription: ''
      title: 'Atualiza os dados de um produto.'
      description: ''
      authenticated: true
      deprecated: false
      custom: []
    headers:
      Authorization: 'Bearer {ACCESS_TOKEN}'
      Content-Type: application/json
      Accept: application/json
    urlParameters:
      id:
        name: id
        description: 'The ID of the produto.'
        required: true
        example: 16
        type: integer
        enumValues: []
        exampleWasSpecified: false
        nullable: false
        custom: []
      produto:
        name: produto
        description: 'Identificador do produto.'
        required: true
        example: 21
        type: integer
        enumValues: []
        exampleWasSpecified: true
        nullable: false
        custom: []
    cleanUrlParameters:
      id: 16
      produto: 21
    queryParameters: []
    cleanQueryParameters: []
    bodyParameters:
      nome:
        name: nome
        description: 'Nome do produto. Informe apenas ao atualizar este campo. Must not be greater than 255 characters.'
        required: true
        example: 'Caixa de Som Bluetooth Pro'
        type: string
        enumValues: []
        exampleWasSpecified: false
        nullable: false
        custom: []
      descricao:
        name: descricao
        description: 'Descrição detalhada do produto.'
        required: true
        example: 'Versão com cancelamento de ruído ativo.'
        type: string
        enumValues: []
        exampleWasSpecified: false
        nullable: false
        custom: []
      preco:
        name: preco
        description: 'Preço unitário do produto. Must be at least 0.'
        required: true
        example: 349.9
        type: number
        enumValues: []
        exampleWasSpecified: false
        nullable: false
        custom: []
      categoria:
        name: categoria
        description: 'Categoria em que o produto está cadastrado. Must not be greater than 255 characters.'
        required: true
        example: Áudio
        type: string
        enumValues: []
        exampleWasSpecified: false
        nullable: false
        custom: []
      estoque:
        name: estoque
        description: 'Quantidade disponível em estoque. Must be at least 0.'
        required: true
        example: 18
        type: integer
        enumValues: []
        exampleWasSpecified: false
        nullable: false
        custom: []
    cleanBodyParameters:
      nome: 'Caixa de Som Bluetooth Pro'
      descricao: 'Versão com cancelamento de ruído ativo.'
      preco: 349.9
      categoria: Áudio
      estoque: 18
    fileParameters: []
    responses:
      -
        status: 200
        content: |-
          {
            "id": 21,
            "nome": "Caixa de Som Bluetooth Pro",
            "descricao": "Versão com cancelamento de ruído ativo",
            "preco": 349.9,
            "categoria": "Áudio",
            "estoque": 18,
            "created_at": "2024-07-10T10:12:05Z",
            "updated_at": "2024-07-12T08:43:27Z"
          }
        headers: []
        description: ''
        custom: []
    responseFields: []
    auth:
      - headers
      - Authorization
      - 'Bearer 6g43cv8PD1aE5beadkZfhV6'
    controller: null
    method: null
    route: null
    custom: []
  -
    httpMethods:
      - DELETE
    uri: 'api/v1/produtos/{id}'
    metadata:
      groupName: Produtos
      groupDescription: ''
      subgroup: ''
      subgroupDescription: ''
      title: 'Remove um produto e libera o registro associado.'
      description: ''
      authenticated: true
      deprecated: false
      custom: []
    headers:
      Authorization: 'Bearer {ACCESS_TOKEN}'
      Content-Type: application/json
      Accept: application/json
    urlParameters:
      id:
        name: id
        description: 'The ID of the produto.'
        required: true
        example: 16
        type: integer
        enumValues: []
        exampleWasSpecified: false
        nullable: false
        custom: []
      produto:
        name: produto
        description: 'Identificador do produto.'
        required: true
        example: 21
        type: integer
        enumValues: []
        exampleWasSpecified: true
        nullable: false
        custom: []
    cleanUrlParameters:
      id: 16
      produto: 21
    queryParameters: []
    cleanQueryParameters: []
    bodyParameters: []
    cleanBodyParameters: []
    fileParameters: []
    responses:
      -
        status: 204
        content: '{}'
        headers: []
        description: ''
        custom: []
    responseFields: []
    auth:
      - headers
      - Authorization
      - 'Bearer 6g43cv8PD1aE5beadkZfhV6'
    controller: null
    method: null
    route: null
    custom: []
